BaseUrl : 
http://www.cvlibs.net/datasets/kitti/raw_data.php

dataCategoly
2011_09_26_drive_0001 

同期なし
http://kitti.is.tue.mpg.de/kitti/raw_data/2011_09_26_drive_0001/2011_09_26_drive_0001_extract.zip
データ同期
http://kitti.is.tue.mpg.de/kitti/raw_data/2011_09_26_drive_0001/2011_09_26_drive_0001_sync.zip
切り出し
http://kitti.is.tue.mpg.de/kitti/raw_data/2011_09_26_drive_0001/2011_09_26_drive_0001_tracklets.zip
カメラポジション
http://kitti.is.tue.mpg.de/kitti/raw_data/2011_09_26_calib.zip

